%YAML 1.1
%TAG !u! tag:unity3d.com,2011:
--- !u!114 &11400000
MonoBehaviour:
  m_ObjectHideFlags: 0
  m_PrefabParentObject: {fileID: 0}
  m_PrefabInternal: {fileID: 0}
  m_GameObject: {fileID: 0}
  m_Enabled: 1
  m_EditorHideFlags: 0
  m_Script: {fileID: 11500000, guid: 1ea1835b1d7ccb4478ac81f189991c4f, type: 3}
  m_Name: Sandbag Wall
  m_EditorClassIdentifier: 
  movementSpeed:
    minSpeed: 0
    maxSpeed: 0
    increaseRate: 0
  currentMovementSpeed: 0
  turningSpeed:
    minSpeed: 0
    maxSpeed: 0
    increaseRate: 0
  currentTurningSpeed: 0
  isAbleToMove: 1
  groundCheckDistance: 0.1
  healthProperties:
    maxHealth: 250
    currentHealth: 0
    isImmortal: 0
    isDead: 0
  sfxPropertiesOnSpawn:
    sfxs: []
    hasSFX: 0
  sfxPropertiesOnDespawn:
    sfxs:
    - clip: {fileID: 8300000, guid: 4b242e2cf1b6b2b4281d0a82175fc426, type: 3}
      maxDistance: 10
      minDistance: 5
      volume: 0.7
      pitch: 1
      audioGroup: {fileID: 243296007453852724, guid: fa250611bf994b34e9e52f50a8db35c4,
        type: 2}
    hasSFX: 1
  entityBody: {fileID: 0}
  buildCost: 1000
  buildTime: 3
  icon: {fileID: 2800000, guid: b266daac7ca65214eb97b341a22cd3ff, type: 3}
  description: Description not yet populated
  prefab: {fileID: 1151642222886772, guid: 8a91145f93608f24cbde85b8f1edf664, type: 2}
