%YAML 1.1
%TAG !u! tag:unity3d.com,2011:
--- !u!114 &11400000
MonoBehaviour:
  m_ObjectHideFlags: 0
  m_PrefabParentObject: {fileID: 0}
  m_PrefabInternal: {fileID: 0}
  m_GameObject: {fileID: 0}
  m_Enabled: 1
  m_EditorHideFlags: 0
  m_Script: {fileID: 11500000, guid: cdd644a674c6c284b9d1121ad65818e3, type: 3}
  m_Name: Grenade Launcher Ammo (Grenade)
  m_EditorClassIdentifier: 
  itemName: Grenade
  value: 100
  amount: 1
  stacks: 1
  icon: {fileID: 0}
  type: 1
  quality: 1
  rarity: 0
  minDamage: 100
  maxDamage: 150
  bulletSpeed: 10
  raycastBullet: 0
  damageType: 3
  bulletPrefab: {fileID: 1985794771662674, guid: d1249c3351474a5488af55dc211ec460,
    type: 2}
  bulletSounds:
    sfxs: []
    hasSFX: 0
  bulletHitSounds:
    sfxs: []
    hasSFX: 0
  bulletHitEffects: {fileID: 1564515734138204, guid: 6b7ea04d8f614d14ab0fe6bbe2ee78ac,
    type: 2}
  bulletMissEffects: {fileID: 0}
  bulletMissSounds:
    sfxs: []
    hasSFX: 0
  weaponType: 1
  aoeDamage: 1
  aoeRadius: 5
  minBurnDamage: 0
  maxBurnDamage: 0
  burnTime: 0
  force: 50
