%YAML 1.1
%TAG !u! tag:unity3d.com,2011:
--- !u!114 &11400000
MonoBehaviour:
  m_ObjectHideFlags: 0
  m_PrefabParentObject: {fileID: 0}
  m_PrefabInternal: {fileID: 0}
  m_GameObject: {fileID: 0}
  m_Enabled: 1
  m_EditorHideFlags: 0
  m_Script: {fileID: 11500000, guid: cdd644a674c6c284b9d1121ad65818e3, type: 3}
  m_Name: Rifle Ammo (Incendary)
  m_EditorClassIdentifier: 
  itemName: Rifle Ammo (Incendary)
  value: 5
  amount: 0
  stacks: 1
  icon: {fileID: 2800000, guid: b266daac7ca65214eb97b341a22cd3ff, type: 3}
  type: 1
  quality: 1
  rarity: 0
  minDamage: 1
  maxDamage: 2
  bulletSpeed: 30
  raycastBullet: 1
  damageType: 1
  bulletPrefab: {fileID: 1985794771662674, guid: d1249c3351474a5488af55dc211ec460,
    type: 2}
  bulletSounds:
    sfxs:
    - clip: {fileID: 8300000, guid: 52eee3472cd0d7744a172523797ea3ea, type: 3}
      maxDistance: 60
      minDistance: 20
      volume: 1
      pitch: 1
      audioGroup: {fileID: 243296007453852724, guid: fa250611bf994b34e9e52f50a8db35c4,
        type: 2}
    - clip: {fileID: 8300000, guid: 9d3e45f5c63735545851c0f2a9f64e02, type: 3}
      maxDistance: 60
      minDistance: 20
      volume: 1
      pitch: 1
      audioGroup: {fileID: 243296007453852724, guid: fa250611bf994b34e9e52f50a8db35c4,
        type: 2}
    - clip: {fileID: 8300000, guid: 3a2bf69b11d822b428312c6ed90bc636, type: 3}
      maxDistance: 60
      minDistance: 20
      volume: 1
      pitch: 1
      audioGroup: {fileID: 243296007453852724, guid: fa250611bf994b34e9e52f50a8db35c4,
        type: 2}
    hasSFX: 1
  bulletHitSounds:
    sfxs:
    - clip: {fileID: 8300000, guid: 956fd22b53107d0418739a8c9eb8eda8, type: 3}
      maxDistance: 60
      minDistance: 20
      volume: 1
      pitch: 1
      audioGroup: {fileID: 243296007453852724, guid: fa250611bf994b34e9e52f50a8db35c4,
        type: 2}
    hasSFX: 1
  bulletHitEffects: {fileID: 1247466157652080, guid: 3ca28e0222cba7a4fb096e1f54a32cfe,
    type: 2}
  bulletMissEffects: {fileID: 1247466157652080, guid: 2544eeed36de73e40ac06631bd55ab6a,
    type: 2}
  bulletMissSounds:
    sfxs:
    - clip: {fileID: 8300000, guid: 956fd22b53107d0418739a8c9eb8eda8, type: 3}
      maxDistance: 0
      minDistance: 0
      volume: 0
      pitch: 0
      audioGroup: {fileID: 0}
    hasSFX: 1
  aoeDamage: 0
  aoeRadius: 0
  minBurnDamage: 0
  maxBurnDamage: 0
  burnTime: 0
  force: 20
