# MagicaVoxel @ ephtracy

# material
mtllib TimePickup.mtl
usemtl palette

# normals
vn -1 0 0
vn 1 0 0
vn 0 0 1
vn 0 0 -1
vn 0 -1 0
vn 0 1 0

# texcoords
vt 0.751953 0.5
vt 0.986328 0.5

# verts
v -1.5 0 1.5
v -1.5 0 -1.5
v -1.5 2 1.5
v -1.5 2 -1.5
v -1.5 3 1.5
v -1.5 3 -1.5
v 1.5 0 1.5
v 1.5 0 -1.5
v 1.5 2 1.5
v 1.5 2 -1.5
v 1.5 3 1.5
v 1.5 3 -1.5
v -1.5 0 1.5
v -1.5 2 1.5
v -1.5 3 1.5
v 1.5 0 1.5
v 1.5 2 1.5
v 1.5 3 1.5
v -1.5 0 -1.5
v -1.5 2 -1.5
v -1.5 3 -1.5
v 1.5 0 -1.5
v 1.5 2 -1.5
v 1.5 3 -1.5
v -1.5 0 1.5
v 1.5 0 1.5
v -1.5 0 -1.5
v 1.5 0 -1.5
v -1.5 3 1.5
v 1.5 3 1.5
v -0.5 3 0.5
v 0.5 3 0.5
v -0.5 3 -0.5
v 0.5 3 -0.5
v -1.5 3 -1.5
v 1.5 3 -1.5

# faces
f 3/2/1 2/2/1 1/2/1
f 4/2/1 2/2/1 3/2/1
f 5/1/1 4/1/1 3/1/1
f 6/1/1 4/1/1 5/1/1
f 7/2/2 8/2/2 9/2/2
f 9/2/2 8/2/2 10/2/2
f 9/1/2 10/1/2 11/1/2
f 11/1/2 10/1/2 12/1/2
f 16/2/3 14/2/3 13/2/3
f 17/1/3 15/1/3 14/1/3
f 17/2/3 14/2/3 16/2/3
f 18/1/3 15/1/3 17/1/3
f 19/2/4 20/2/4 22/2/4
f 20/1/4 21/1/4 23/1/4
f 22/2/4 20/2/4 23/2/4
f 23/1/4 21/1/4 24/1/4
f 27/2/5 26/2/5 25/2/5
f 28/2/5 26/2/5 27/2/5
f 29/1/6 30/1/6 31/1/6
f 31/1/6 30/1/6 32/1/6
f 29/1/6 31/1/6 33/1/6
f 31/2/6 32/2/6 33/2/6
f 32/1/6 30/1/6 34/1/6
f 33/2/6 32/2/6 34/2/6
f 29/1/6 33/1/6 35/1/6
f 33/1/6 34/1/6 35/1/6
f 34/1/6 30/1/6 36/1/6
f 35/1/6 34/1/6 36/1/6
