%YAML 1.1
%TAG !u! tag:unity3d.com,2011:
--- !u!114 &11400000
MonoBehaviour:
  m_ObjectHideFlags: 0
  m_PrefabParentObject: {fileID: 0}
  m_PrefabInternal: {fileID: 0}
  m_GameObject: {fileID: 0}
  m_Enabled: 1
  m_EditorHideFlags: 0
  m_Script: {fileID: 11500000, guid: f84d0466df932494f91fc2863c7eecaf, type: 3}
  m_Name: Machine Gun Turret
  m_EditorClassIdentifier: 
  movementSpeed:
    minSpeed: 0
    maxSpeed: 0
    increaseRate: 0
  currentMovementSpeed: 0
  turningSpeed:
    minSpeed: 0
    maxSpeed: 0
    increaseRate: 0
  currentTurningSpeed: 0
  isAbleToMove: 1
  groundCheckDistance: 0.1
  healthProperties:
    maxHealth: 70
    currentHealth: 70
    isImmortal: 0
    isDead: 0
  sfxPropertiesOnSpawn:
    sfxs:
    - clip: {fileID: 8300000, guid: 0e63ec5c63ac4c249880e4f8c872370a, type: 3}
      maxDistance: 10
      minDistance: 5
      volume: 0.7
      pitch: 1
      audioGroup: {fileID: 243296007453852724, guid: fa250611bf994b34e9e52f50a8db35c4,
        type: 2}
    hasSFX: 1
  sfxPropertiesOnDespawn:
    sfxs:
    - clip: {fileID: 8300000, guid: 1e14deb087f95954298aaebb7e7ffe11, type: 3}
      maxDistance: 20
      minDistance: 10
      volume: 1
      pitch: 1
      audioGroup: {fileID: 243296007453852724, guid: fa250611bf994b34e9e52f50a8db35c4,
        type: 2}
    hasSFX: 1
  entityBody: {fileID: 0}
  buildCost: 5000
  buildTime: 3
  icon: {fileID: 2800000, guid: b266daac7ca65214eb97b341a22cd3ff, type: 3}
  description: Description not yet populated
  prefab: {fileID: 1112600228678866, guid: e5e30a9755c663e4c9edd769062a2eb9, type: 2}
  attackRange: 35
  viewAngle: 120
  ammo: {fileID: 11400000, guid: 074cd5ea56024a446aa594ae2e7be3f6, type: 2}
  attackDelay: 0.2
  muzzleFlashPrefab: {fileID: 1196124408442234, guid: 4c34e7a844af0cd4d94074e6b782574e,
    type: 2}
