%YAML 1.1
%TAG !u! tag:unity3d.com,2011:
--- !u!114 &11400000
MonoBehaviour:
  m_ObjectHideFlags: 0
  m_PrefabParentObject: {fileID: 0}
  m_PrefabInternal: {fileID: 0}
  m_GameObject: {fileID: 0}
  m_Enabled: 1
  m_EditorHideFlags: 0
  m_Script: {fileID: 11500000, guid: 258212120a6e5ee47b6c6f6583e4013e, type: 3}
  m_Name: Only Common Items
  m_EditorClassIdentifier: 
  qualityValues:
  - quality: 1
    multipler: 1
  rarityValues:
  - rarity: 0
    multipler: 1
